[
{
"image":"../../assets/images/products/Crème.jpg",
"imageName":"Savon Naturel Tout-En-Un BIG RED",
"price":2200
},
{
"image":"../../assets/images/products/Daimon.jpg",
"imageName":"Face Serum Daimon Barber DAIMON BARBER",
"price":4500
},
{
"image":"../../assets/images/products/Fatigue.jpg",
"imageName":"Crème Anti-Fatigue Yeux DAIMON BARBER",
"price":4500
},
{
"image":"../../assets/images/products/Moustac.jpg",
"imageName":"Crème Anti-Fatigue Yeux DAIMON BARBER",
"price":4500
},
{
"image":"../../assets/images/products/parfum.jpg",
"imageName":"Eau De Parfum CAPTAIN FAWCETT",
"price":79.90
},
{
"image":"../../assets/images/products/Savon.jpg",
"imageName":"Cire à Moustache CAPTAIN FAWCETT",
"price":1690
}
]